%YAML 1.1
%TAG !u! tag:unity3d.com,2011:
--- !u!114 &11400000
MonoBehaviour:
  m_ObjectHideFlags: 0
  m_CorrespondingSourceObject: {fileID: 0}
  m_PrefabInstance: {fileID: 0}
  m_PrefabAsset: {fileID: 0}
  m_GameObject: {fileID: 0}
  m_Enabled: 1
  m_EditorHideFlags: 0
  m_Script: {fileID: -1893448595, guid: a040fb66244a7f54289914d98ea4ef7d, type: 3}
  m_Name: FirstPartDelete
  m_EditorClassIdentifier: 
  _data:
    _json: '{"graph":{"variables":{"collection":{"$content":[],"$version":"A"},"$version":"A"},"controlInputDefinitions":[],"controlOutputDefinitions":[],"valueInputDefinitions":[],"valueOutputDefinitions":[],"title":null,"summary":null,"pan":{"x":817.0475,"y":119.9757},"zoom":0.4999999,"elements":[{"coroutine":false,"defaultValues":{},"position":{"x":-204.0,"y":-144.0},"guid":"f45ac129-5852-4089-b813-bf8a3a543244","$version":"A","$type":"Bolt.Start"},{"coroutine":false,"defaultValues":{},"position":{"x":-204.0,"y":60.0},"guid":"c59bb732-b206-443b-b574-692a2dc274da","$version":"A","$type":"Bolt.Update","$id":"11"},{"specifyFallback":false,"kind":"Object","defaultValues":{"name":{"$content":"Player","$type":"System.String"},"object":null},"position":{"x":-194.0,"y":164.0},"guid":"c2d0684e-1ccb-44a0-81a8-0c25c3a51082","$version":"A","$type":"Bolt.GetVariable","$id":"13"},{"member":{"name":"position","parameterTypes":null,"targetType":"UnityEngine.Transform","targetTypeName":"UnityEngine.Transform","$version":"A"},"defaultValues":{"target":null},"position":{"x":11.0,"y":174.0},"guid":"a1b91b4f-f882-4945-9b61-6218618fadc4","$version":"A","$type":"Bolt.GetMember","$id":"15"},{"defaultValues":{},"position":{"x":729.0,"y":-7.0},"guid":"94870e3b-315f-404f-b51e-d7d8eb65be70","$version":"A","$type":"Bolt.Branch","$id":"18"},{"member":{"name":"y","parameterTypes":null,"targetType":"UnityEngine.Vector3","targetTypeName":"UnityEngine.Vector3","$version":"A"},"defaultValues":{"target":{"x":0.0,"y":0.0,"z":0.0,"$type":"UnityEngine.Vector3"}},"position":{"x":203.0,"y":172.0},"guid":"03676c31-f7ea-456b-84b0-9a6434e8a5d7","$version":"A","$type":"Bolt.GetMember","$id":"20"},{"numeric":true,"defaultValues":{"b":{"$content":40.0,"$type":"System.Single"}},"position":{"x":433.0,"y":175.0},"guid":"80d197c9-84e8-446e-9285-7c79c57d7fc7","$version":"A","$type":"Bolt.Greater","$id":"23"},{"chainable":false,"member":{"name":"Destroy","parameterTypes":["UnityEngine.Object"],"targetType":"UnityEngine.Component","targetTypeName":"UnityEngine.Component","$version":"A"},"defaultValues":{"%obj":null},"position":{"x":1054.0,"y":-8.0},"guid":"cd037392-7d8f-46b6-9b6d-2d62c92f875e","$version":"A","$type":"Bolt.InvokeMember","$id":"25"},{"defaultValues":{},"position":{"x":896.0,"y":154.0},"guid":"d4392bd2-8294-4a18-abab-ddc3f548f2d7","$version":"A","$type":"Bolt.Self","$id":"28"},{"sourceUnit":{"$ref":"11"},"sourceKey":"trigger","destinationUnit":{"$ref":"18"},"destinationKey":"enter","guid":"b3d7820c-00e2-4ea7-bddc-b55ae47e0356","$type":"Bolt.ControlConnection"},{"sourceUnit":{"$ref":"18"},"sourceKey":"ifTrue","destinationUnit":{"$ref":"25"},"destinationKey":"enter","guid":"50ed6887-4135-40e3-9bcf-16d9ee2d54d6","$type":"Bolt.ControlConnection"},{"sourceUnit":{"$ref":"13"},"sourceKey":"value","destinationUnit":{"$ref":"15"},"destinationKey":"target","guid":"a3152226-2fc1-411f-9fe5-f9da51f7320c","$type":"Bolt.ValueConnection"},{"sourceUnit":{"$ref":"15"},"sourceKey":"value","destinationUnit":{"$ref":"20"},"destinationKey":"target","guid":"1b8235e3-a7d5-47ab-ae67-49ef0297e99b","$type":"Bolt.ValueConnection"},{"sourceUnit":{"$ref":"20"},"sourceKey":"value","destinationUnit":{"$ref":"23"},"destinationKey":"a","guid":"d2820afc-9752-4c6f-b14e-316c1b035e18","$type":"Bolt.ValueConnection"},{"sourceUnit":{"$ref":"23"},"sourceKey":"comparison","destinationUnit":{"$ref":"18"},"destinationKey":"condition","guid":"15f51ebc-9480-4de5-8690-ed8a97584847","$type":"Bolt.ValueConnection"},{"sourceUnit":{"$ref":"28"},"sourceKey":"self","destinationUnit":{"$ref":"25"},"destinationKey":"%obj","guid":"878cc926-2748-452d-9fcc-0d61cb299f00","$type":"Bolt.ValueConnection"}],"$version":"A"}}'
    _objectReferences: []
